[
    {
        "id": 1,
        "updated": "2010-12-26T13:07:49Z",
        "abbreviation": "NR",
        "code": "RAT_1_",
        "name": "Nationalrat",
        "type": "N"
    },
    {
        "id": 2,
        "updated": "2010-12-26T13:07:49Z",
        "abbreviation": "SR",
        "code": "RAT_2_",
        "name": "Ständerat",
        "type": "S"
    },
    {
        "id": 3,
        "updated": "2010-12-26T13:07:49Z",
        "hasMorePages": false,
        "abbreviation": "V",
        "code": "RAT_3_",
        "name": "Vereinigte Bundesversammlung",
        "type": "B"
    }
]